\boolfalse {citerequest}\boolfalse {citetracker}\boolfalse {pagetracker}\boolfalse {backtracker}\relax 
\defcounter {refsection}{0}\relax 
\beamer@endinputifotherversion {3.26pt}
\defcounter {refsection}{0}\relax 
\select@language {british}
\defcounter {refsection}{0}\relax 
\beamer@sectionintoc {1}{From classical approach}{2}{0}{1}
\defcounter {refsection}{0}\relax 
\beamer@sectionintoc {2}{Through FPGA-based SDR}{8}{0}{2}
\defcounter {refsection}{0}\relax 
\beamer@sectionintoc {3}{To SoC-based SDR}{12}{0}{3}
\defcounter {refsection}{0}\relax 
\beamer@sectionintoc {4}{Conclusion and perspectives}{18}{0}{4}
